<svg width="450" height="767" viewBox="0 0 450 767" fill="none" xmlns="http://www.w3.org/2000/svg">
<rect width="450" height="767" fill="white"/>
<rect x="84.9524" y="184" width="3.09524" height="13" rx="1.54762" fill="#C4C4C4" fill-opacity="0.3"/>
<rect x="93" y="188.952" width="3.09524" height="13" rx="1.54762" transform="rotate(90 93 188.952)" fill="#C4C4C4" fill-opacity="0.3"/>
<rect x="382.238" y="279" width="4.52381" height="19" rx="2.2619" fill="#C4C4C4" fill-opacity="0.3"/>
<rect x="394" y="286.238" width="4.52381" height="19" rx="2.2619" transform="rotate(90 394 286.238)" fill="#C4C4C4" fill-opacity="0.3"/>
<rect x="54.7619" y="240" width="5.47619" height="23" rx="2.7381" fill="#C4C4C4" fill-opacity="0.3"/>
<rect x="69" y="248.762" width="5.47619" height="23" rx="2.7381" transform="rotate(90 69 248.762)" fill="#C4C4C4" fill-opacity="0.3"/>
<rect x="371.952" y="187" width="3.09524" height="13" rx="1.54762" fill="#C4C4C4" fill-opacity="0.3"/>
<rect x="380" y="191.952" width="3.09524" height="13" rx="1.54762" transform="rotate(90 380 191.952)" fill="#C4C4C4" fill-opacity="0.3"/>
<circle cx="402" cy="233" r="3" fill="#C4C4C4" fill-opacity="0.3"/>
<circle cx="77" cy="316" r="3" fill="#C4C4C4" fill-opacity="0.3"/>
<circle cx="45" cy="189" r="2" fill="#C4C4C4" fill-opacity="0.3"/>
<circle cx="338" cy="252" r="2" fill="#C4C4C4" fill-opacity="0.3"/>
</svg>
